# 3ds Max Wavefront OBJ Exporter v0.97b - (c)2007 guruware
# File Created: 02.05.2020 10:20:49

newmtl Boid_01___Default
	Ns 10.0000
	Ni 1.5000
	d 1.0000
	Tr 0.0000
	Tf 1.0000 1.0000 1.0000 
	illum 2
	Ka 0.5882 0.5882 0.5882
	Kd 0.5882 0.5882 0.5882
	Ks 0.0000 0.0000 0.0000
	Ke 0.0000 0.0000 0.0000
	map_Ka E:\Desktop\On Going Projects\horizonsengine2\he2\Main\HE2\WorkingDir\Textures\Leather.jpg
	map_Kd E:\Desktop\On Going Projects\horizonsengine2\he2\Main\HE2\WorkingDir\Textures\Leather.jpg
	map_Ks E:\Desktop\On Going Projects\horizonsengine2\he2\Main\HE2\WorkingDir\Textures\Leather_s.jpg
	map_bump E:\Desktop\On Going Projects\horizonsengine2\he2\Main\HE2\WorkingDir\Textures\Leather_normal.jpg
	bump E:\Desktop\On Going Projects\horizonsengine2\he2\Main\HE2\WorkingDir\Textures\Leather_normal.jpg
