# 3ds Max Wavefront OBJ Exporter v0.97b - (c)2007 guruware
# File Created: 07.04.2020 13:48:02

newmtl 01___Default
	Ns 10.0000
	Ni 1.5000
	d 1.0000
	Tr 0.0000
	Tf 1.0000 1.0000 1.0000 
	illum 2
	Ka 0.5882 0.5882 0.5882
	Kd 0.5882 0.5882 0.5882
	Ks 0.0000 0.0000 0.0000
	Ke 0.0000 0.0000 0.0000
	map_Ka D:\Desktop\On Going Projects\he2\Main\HE2\WorkingDir\Textures\Rock.jpg
	map_Kd D:\Desktop\On Going Projects\he2\Main\HE2\WorkingDir\Textures\Rock.jpg
