# 3ds Max Wavefront OBJ Exporter v0.97b - (c)2007 guruware
# File Created: 07.04.2020 13:48:02

mtllib Boulder_A.mtl

#
# object Plane001
#

v  -9.3386 0.0000 6.6386
v  -9.3339 0.0000 4.1018
v  -4.8462 0.0000 4.1018
v  -4.8462 0.0000 8.8034
v  0.0072 0.0000 4.1018
v  0.0072 0.0000 8.8034
v  4.8606 0.0000 4.1018
v  4.8606 0.0000 8.8034
v  9.7141 0.0000 4.1018
v  8.2926 0.0000 7.8654
v  -10.6274 0.0000 -0.5997
v  -4.8462 0.0000 -0.5997
v  0.0072 0.0000 -0.5997
v  4.8606 0.0000 -0.5997
v  9.2402 0.0000 -0.5997
v  -10.6274 0.0000 -5.3012
v  -4.8462 0.0000 -5.3012
v  0.0072 0.0000 -5.3012
v  4.8606 0.0000 -5.3012
v  9.7141 0.0000 -5.3012
v  -8.0392 0.9193 -8.3705
v  -4.8462 0.9193 -9.0677
v  0.0072 0.9193 -9.0677
v  4.8606 0.9193 -9.0677
v  8.5288 0.9193 -8.8260
v  -4.8462 0.8360 10.8839
v  -9.3386 0.5735 8.3627
v  0.0072 0.8360 10.8839
v  4.8606 0.8360 10.8839
v  8.2926 1.5630 9.5895
v  6.3747 4.8179 0.1143
v  6.3901 4.7986 3.8014
v  -5.0285 6.3616 8.8406
v  -7.0977 5.3938 7.1429
v  -8.1174 4.7135 6.2147
v  0.0072 1.3744 12.2928
v  -1.2223 2.3256 11.9410
v  -2.5133 2.3256 11.9410
v  -2.4820 1.3744 12.2928
v  1.3039 1.3744 12.2928
v  0.9120 2.3256 11.9410
v  5.2753 6.3616 8.1050
v  2.5839 6.3616 8.8406
v  -8.0392 6.1491 -7.3649
v  -4.8462 6.7504 -7.0565
v  0.0072 6.7504 -7.0565
v  4.8606 6.7504 -7.0565
v  7.8156 5.7938 -5.1938
v  -8.4061 4.6285 4.1018
v  -9.6996 4.6285 -0.5997
v  -9.6996 4.6285 -5.3012
v  2.2233 9.2087 0.5913
v  2.0437 9.1894 2.3437
v  6.3653 5.7035 -0.0290
v  7.5027 6.6193 -3.5025
v  3.7569 9.9297 -1.5894
v  3.5146 8.7160 0.2978
v  -3.3832 10.4845 5.7792
v  -4.7118 9.5279 5.1251
v  -4.8513 9.1043 3.4906
v  -1.2223 6.3616 8.8406
v  -1.5742 10.4845 5.7792
v  0.2347 10.4845 5.7792
v  1.5139 10.4845 5.4296
v  -4.7842 9.7796 -1.5028
v  -3.2966 10.2297 -1.9769
v  -0.9899 10.2297 -1.9769
v  2.2906 9.7611 -1.5342
v  -4.9885 9.0193 2.4864
v  -5.6033 9.0193 0.2519
v  9.5149 2.8111 -2.7030
v  -1.6173 11.0869 1.1906
v  -2.6863 10.8568 2.8066
v  -1.2421 11.0555 3.2652
# 74 vertices

vn -0.0553 -0.9919 0.1147
vn 0.0000 -1.0000 -0.0000
vn -0.0495 -0.9761 0.2116
vn 0.0000 -0.9818 0.1899
vn 0.0300 -0.9783 0.2051
vn 0.1180 -0.9677 0.2227
vn -0.0093 -0.9949 -0.1000
vn 0.0000 -0.9928 -0.1194
vn 0.0020 -0.9926 -0.1213
vn 0.0000 -0.9931 -0.1172
vn -0.0750 -0.9361 -0.3436
vn -0.0098 -0.9679 -0.2513
vn 0.0000 -0.9715 -0.2371
vn 0.0076 -0.9715 -0.2371
vn 0.0068 -0.9693 -0.2457
vn -0.0626 -0.9261 0.3721
vn -0.1510 -0.9338 0.3244
vn 0.0000 -0.9279 0.3729
vn 0.0982 -0.9002 0.4243
vn 0.3796 -0.6854 0.6214
vn 0.8716 -0.3632 0.3292
vn 0.8594 0.5113 -0.0009
vn 0.8216 0.5640 -0.0828
vn -0.6798 0.2345 0.6949
vn -0.4638 0.4138 0.7833
vn -0.7451 0.4669 0.4763
vn -0.9666 0.2432 -0.0809
vn -0.0000 0.3468 0.9379
vn 0.0000 0.3468 0.9379
vn 0.2391 0.4210 0.8749
vn 0.2402 0.4222 0.8741
vn 0.8219 0.5697 0.0060
vn 0.8363 0.5448 0.0614
vn -0.2097 0.1846 -0.9602
vn 0.0299 0.3259 -0.9449
vn 0.0000 0.3261 -0.9453
vn 0.0622 0.3254 -0.9435
vn 0.5663 0.5441 -0.6190
vn 0.9234 0.3068 -0.2305
vn -0.9681 0.2507 -0.0018
vn -0.9728 0.1950 0.1251
vn -0.9467 0.1898 0.2605
vn -0.9805 0.1965 -0.0000
vn -0.7776 0.1559 -0.6091
vn -0.8124 0.1101 -0.5726
vn 0.7267 0.6870 0.0006
vn 0.6952 0.7144 0.0791
vn 0.7136 0.5835 0.3875
vn 0.6690 0.5831 0.4609
vn -0.6559 0.6009 0.4568
vn -0.6569 0.6012 0.4550
vn -0.7217 0.5918 0.3591
vn -0.8221 0.5643 -0.0761
vn 0.0000 0.5962 0.8029
vn 0.1993 0.6549 0.7290
vn 0.7198 0.6911 -0.0645
vn 0.7727 0.6217 -0.1283
vn -0.1184 0.8723 -0.4745
vn -0.3854 0.8119 -0.4385
vn 0.0000 0.8250 -0.5651
vn 0.1825 0.8964 -0.4038
vn 0.4426 0.8577 -0.2617
vn -0.7751 0.6266 0.0807
vn -0.7784 0.6255 0.0534
vn -0.7353 0.6468 0.2023
vn -0.7312 0.6822 -0.0000
vn -0.7125 0.7011 -0.0288
vn -0.7054 0.7073 -0.0464
vn 0.9632 -0.1239 0.2387
vn 0.9435 0.0627 0.3255
vn -0.0985 0.5971 -0.7961
vn 0.5506 0.7858 -0.2816
vn 0.3935 0.8866 0.2429
vn -0.0769 0.8430 0.5323
vn 0.2745 0.1565 0.9488
vn 0.2759 0.1583 0.9481
vn 0.9947 -0.0222 0.1003
vn 0.9162 0.3050 -0.2598
vn 0.6929 0.6519 0.3080
vn 0.7397 0.3553 0.5714
vn 0.0000 -0.9341 0.3569
vn 0.3866 0.4558 0.8018
vn 0.0000 0.6092 0.7930
vn -0.0000 0.6092 0.7930
vn -0.5376 0.2768 0.7964
vn 0.4456 0.8935 0.0555
vn 0.4564 0.8575 0.2373
vn -0.5736 0.8185 -0.0320
vn -0.6492 0.7479 -0.1384
vn 0.0000 0.9752 0.2215
vn -0.1623 0.9831 0.0851
vn 0.0524 0.9800 0.1918
vn 0.5074 0.8222 -0.2579
vn 0.2219 0.9747 -0.0254
vn -0.3144 0.9451 -0.0891
vn 0.0000 0.9653 -0.2612
vn 0.1676 0.9595 -0.2264
vn -0.6253 0.7801 0.0194
vn -0.6290 0.7579 0.1731
vn -0.4259 0.8914 -0.1548
vn -0.4827 0.8631 0.1486
vn -0.1493 0.9879 0.0419
# 102 vertex normals

vt 0.5223 0.1628 -5.8095
vt 0.5224 0.2268 -5.8095
vt 0.6123 0.2268 -5.8095
vt 0.6123 0.1081 -5.8095
vt 0.7349 0.2268 -5.8095
vt 0.7349 0.1081 -5.8095
vt 0.8574 0.2268 -5.8095
vt 0.8574 0.1081 -5.8095
vt 0.9800 0.2268 -5.8095
vt 0.9441 0.1318 -5.8095
vt 0.4898 0.3456 -5.8095
vt 0.6123 0.3456 -5.8095
vt 0.7349 0.3456 -5.8095
vt 0.8574 0.3456 -5.8095
vt 0.9680 0.3456 -5.8095
vt 0.4898 0.4643 -5.8095
vt 0.6123 0.4643 -5.8095
vt 0.7349 0.4643 -5.8095
vt 0.8574 0.4643 -5.8095
vt 0.9800 0.4643 -5.8095
vt 0.5317 0.5418 -4.8462
vt 0.6123 0.5594 -4.8462
vt 0.7349 0.5594 -4.8462
vt 0.8574 0.5594 -4.8462
vt 0.9501 0.5533 -4.8462
vt 0.6123 0.0556 -4.9334
vt 0.5223 0.1192 -5.2085
vt 0.7349 0.0556 -4.9334
vt 0.8574 0.0556 -4.9334
vt 0.9441 0.0883 -4.1715
vt 0.8957 0.3275 -0.7603
vt 0.8961 0.2344 -0.7806
vt 0.1318 0.3030 2.2108
vt 0.2024 0.3949 2.2108
vt 0.1592 0.4267 2.2108
vt 0.0599 0.3858 2.2108
vt 0.1358 0.4440 2.2108
vt 0.0422 0.4190 2.2108
vt 0.2263 0.2412 2.2108
vt 0.2146 0.2725 2.2108
vt 0.1922 0.2862 2.2108
vt 0.1810 0.2681 -1.7757
vt 0.2507 0.2283 2.2108
vt 0.2530 0.2509 2.2108
vt 0.4059 0.1881 2.2108
vt 0.3886 0.3120 2.2108
vt 0.3330 0.3272 2.2108
vt 0.3264 0.1952 2.2108
vt 0.8679 0.1257 0.8574
vt 0.5317 0.5164 0.6347
vt 0.6123 0.5086 1.2648
vt 0.7349 0.5086 1.2648
vt 0.8574 0.5086 1.2648
vt 0.9321 0.4616 0.2624
vt 0.0341 0.4712 2.2108
vt 0.1285 0.4840 2.2108
vt 0.0201 0.5714 2.2108
vt 0.1130 0.5757 2.2108
vt 0.0200 0.6672 2.2108
vt 0.1117 0.6644 2.2108
vt 0.0530 0.7442 -2.2108
vt 0.1531 0.7072 2.2108
vt 0.7908 0.3155 3.8412
vt 0.7863 0.2712 3.8209
vt 0.8954 0.3311 0.1677
vt 0.9242 0.4189 1.1274
vt 0.8296 0.3705 4.5968
vt 0.8235 0.3229 3.3248
vt 0.2675 0.4566 2.2108
vt 0.2415 0.4687 2.2108
vt 0.2351 0.4979 2.2108
vt 0.2656 0.3603 2.2108
vt 0.2964 0.4482 2.2108
vt 0.3277 0.4379 2.2108
vt 0.3542 0.4355 2.2108
vt 0.7729 0.1933 5.1782
vt 0.2181 0.7118 2.2108
vt 0.2471 0.5929 2.2108
vt 0.2774 0.6021 2.2108
vt 0.6515 0.3803 4.9112
vt 0.7097 0.3803 4.9112
vt 0.7925 0.3692 4.4201
vt 0.2330 0.5169 2.2108
vt 0.2254 0.5595 2.2108
vt 0.3917 0.5968 2.2108
vt 0.2415 0.4986 2.2108
vt 0.3176 0.4119 2.2108
vt 0.4744 0.5089 2.2108
vt 0.3678 0.0200 2.2108
vt 0.4044 0.0834 2.2108
vt 0.9750 0.3987 -2.8635
vt 0.7349 0.0200 -4.3692
vt 0.6720 0.0200 -4.3692
vt 0.7676 0.0200 -4.3692
vt 0.6939 0.3003 5.8095
vt 0.2877 0.5058 2.2108
vt 0.3136 0.4931 2.2108
vt 0.3912 0.4960 2.2108
vt 0.3121 0.5359 2.2108
vt 0.3242 0.6025 2.2108
# 100 texture coords

o Plane001
g Plane001
usemtl 01___Default
s 1
f 1/1/1 2/2/2 3/3/2 
f 3/3/2 4/4/3 1/1/1 
f 4/4/3 3/3/2 5/5/2 
f 5/5/2 6/6/4 4/4/3 
f 6/6/4 5/5/2 7/7/2 
f 7/7/2 8/8/5 6/6/4 
f 8/8/5 7/7/2 9/9/2 
f 9/9/2 10/10/6 8/8/5 
f 2/2/2 11/11/2 12/12/2 
f 12/12/2 3/3/2 2/2/2 
f 3/3/2 12/12/2 13/13/2 
f 13/13/2 5/5/2 3/3/2 
f 5/5/2 13/13/2 14/14/2 
f 14/14/2 7/7/2 5/5/2 
f 7/7/2 14/14/2 15/15/2 
f 15/15/2 9/9/2 7/7/2 
f 11/11/2 16/16/7 17/17/8 
f 17/17/8 12/12/2 11/11/2 
f 12/12/2 17/17/8 18/18/8 
f 18/18/8 13/13/2 12/12/2 
f 13/13/2 18/18/8 19/19/9 
f 19/19/9 14/14/2 13/13/2 
f 14/14/2 19/19/9 20/20/10 
f 20/20/10 15/15/2 14/14/2 
f 16/16/7 21/21/11 22/22/12 
f 22/22/12 17/17/8 16/16/7 
f 17/17/8 22/22/12 23/23/13 
f 23/23/13 18/18/8 17/17/8 
f 18/18/8 23/23/13 24/24/14 
f 24/24/14 19/19/9 18/18/8 
f 19/19/9 24/24/14 25/25/15 
f 25/25/15 20/20/10 19/19/9 
f 4/4/3 26/26/16 27/27/17 
f 27/27/17 1/1/1 4/4/3 
f 6/6/4 28/28/18 26/26/16 
f 26/26/16 4/4/3 6/6/4 
f 8/8/5 29/29/19 28/28/18 
f 28/28/18 6/6/4 8/8/5 
f 10/10/6 30/30/20 29/29/19 
f 29/29/19 8/8/5 10/10/6 
s off
f 30/30/21 10/10/21 9/9/21 
f 15/15/22 31/31/22 32/32/22 
f 32/32/23 9/9/23 15/15/23 
f 26/33/24 33/34/24 34/35/24 
f 34/35/25 27/36/25 26/33/25 
f 27/36/26 34/35/26 35/37/26 
f 35/37/27 1/38/27 27/36/27 
f 36/39/28 37/40/28 38/41/28 
f 38/41/29 39/42/29 36/39/29 
f 40/43/29 41/44/29 37/40/29 
f 37/40/28 36/39/28 40/43/28 
f 30/45/30 42/46/30 43/47/30 
f 43/47/31 29/48/31 30/45/31 
f 9/9/32 32/32/32 42/49/32 
f 42/49/33 30/30/33 9/9/33 
f 22/22/34 21/21/34 44/50/34 
f 44/50/35 45/51/35 22/22/35 
f 23/23/36 22/22/36 45/51/36 
f 45/51/36 46/52/36 23/23/36 
f 24/24/36 23/23/36 46/52/36 
f 46/52/36 47/53/36 24/24/36 
f 25/25/37 24/24/37 47/53/37 
f 47/53/38 48/54/38 25/25/38 
f 20/20/39 25/25/39 48/54/39 
f 2/55/40 1/38/40 35/37/40 
f 35/37/41 49/56/41 2/55/41 
f 11/57/42 2/55/42 49/56/42 
f 49/56/42 50/58/42 11/57/42 
f 16/59/43 11/57/43 50/58/43 
f 50/58/43 51/60/43 16/59/43 
f 21/61/44 16/59/44 51/60/44 
f 51/60/45 44/62/45 21/61/45 
f 32/32/46 31/31/46 52/63/46 
f 52/63/47 53/64/47 32/32/47 
f 54/65/48 55/66/48 56/67/48 
f 56/67/49 57/68/49 54/65/49 
f 34/35/50 33/34/50 58/69/50 
f 58/69/51 59/70/51 34/35/51 
f 35/37/52 34/35/52 59/70/52 
f 59/70/53 60/71/53 35/37/53 
f 33/34/54 61/72/54 62/73/54 
f 62/73/54 58/69/54 33/34/54 
f 61/72/54 43/47/54 63/74/54 
f 63/74/54 62/73/54 61/72/54 
f 43/47/55 42/46/55 64/75/55 
f 64/75/55 63/74/55 43/47/55 
f 42/49/56 32/32/56 53/64/56 
f 53/64/57 64/76/57 42/49/57 
f 45/77/58 44/62/58 65/78/58 
f 65/78/59 66/79/59 45/77/59 
f 46/52/60 45/51/60 66/80/60 
f 66/80/60 67/81/60 46/52/60 
f 47/53/60 46/52/60 67/81/60 
f 67/81/61 68/82/61 47/53/61 
f 48/54/62 47/53/62 68/82/62 
f 49/56/63 35/37/63 60/71/63 
f 60/71/64 69/83/64 49/56/64 
f 50/58/65 49/56/65 69/83/65 
f 69/83/65 70/84/65 50/58/65 
f 51/60/66 50/58/66 70/84/66 
f 70/84/67 65/78/67 51/60/67 
f 44/62/68 51/60/68 65/78/68 
f 31/31/69 48/54/69 55/66/69 
f 55/66/70 54/65/70 31/31/70 
f 48/54/71 68/82/71 56/67/71 
f 56/67/72 55/66/72 48/54/72 
f 68/85/73 52/86/73 57/87/73 
f 57/87/74 56/88/74 68/85/74 
f 52/86/75 31/89/75 54/90/75 
f 54/90/76 57/87/76 52/86/76 
f 15/15/77 20/20/77 71/91/77 
f 20/20/78 48/54/78 71/91/78 
f 48/54/79 31/31/79 71/91/79 
f 31/31/80 15/15/80 71/91/80 
f 26/26/81 28/28/81 36/92/81 
f 36/92/81 39/93/81 26/26/81 
f 28/28/81 29/29/81 40/94/81 
f 40/94/81 36/92/81 28/28/81 
f 29/48/82 43/47/82 41/44/82 
f 41/44/82 40/43/82 29/48/82 
f 43/47/83 61/72/83 37/40/83 
f 37/40/83 41/44/83 43/47/83 
f 61/72/83 33/34/83 38/41/83 
f 38/41/84 37/40/84 61/72/84 
f 33/34/85 26/33/85 39/42/85 
f 39/42/85 38/41/85 33/34/85 
f 53/64/86 52/63/86 72/95/86 
f 52/63/87 68/82/87 72/95/87 
f 59/70/88 58/69/88 73/96/88 
f 60/71/89 59/70/89 73/96/89 
f 58/69/90 62/73/90 74/97/90 
f 74/97/91 73/96/91 58/69/91 
f 62/73/90 63/74/90 74/97/90 
f 63/74/92 64/75/92 74/97/92 
f 64/75/93 53/98/93 72/99/93 
f 72/99/94 74/97/94 64/75/94 
f 66/79/95 65/78/95 72/99/95 
f 67/100/96 66/79/96 72/99/96 
f 68/85/97 67/100/97 72/99/97 
f 69/83/98 60/71/98 73/96/98 
f 70/84/99 69/83/99 73/96/99 
f 73/96/100 72/99/100 70/84/100 
f 65/78/101 70/84/101 72/99/101 
f 73/96/102 74/97/102 72/99/102 
# 144 faces

