# 3ds Max Wavefront OBJ Exporter v0.97b - (c)2007 guruware
# File Created: 13.02.2019 13:11:24

newmtl wire_108008136
	Ns 32
	d 1
	Tr 0
	Tf 1 1 1
	illum 2
	Ka 0.4235 0.0314 0.5333
	Kd 0.4235 0.0314 0.5333
	Ks 0.3500 0.3500 0.3500
	map_Ka D:\Desktop\On Going Projects\he2\Main\HE2\WorkingDir\Textures\Tree_B_Texture.png
	map_Kd D:\Desktop\On Going Projects\he2\Main\HE2\WorkingDir\Textures\Tree_B_Texture.png